{
  "currentPage": 2,
  "pageSize": 10,
  "totalItems": 30,
  "totalPages": 3,
  "data": [
    {
      "contractNumber": "0101.91.118201",
      "mcasNumber": "245987",
      "cif": "8382502",
      "fullName": "PETER PARKER",
      "email": "",
      "mobile": "0935765495",
      "identityNumber": "205281714",
      "authChannel": "SMS",
      "status": "",
      "lastUpdated": "2025-05-13T13:48:01",
      "actions": [
        "Đăng ký",
        "Hủy CKS",
        "Đồng bộ"
      ]
    },
    {
      "contractNumber": "0101.91.1182802",
      "mcasNumber": "245988",
      "cif": "0036219",
      "fullName": "TONY STARK",
      "email": "a.tran@example.com",
      "mobile": "0931111222",
      "identityNumber": "123456789",
      "authChannel": "Email",
      "status": "Đang xử lý",
      "lastUpdated": "2025-05-13T12:30:00",
      "actions": [
        "Hủy CKS",
        "Đồng bộ"
      ]
    },
    {
      "contractNumber": "0101.91.118203",
      "mcasNumber": "245989",
      "cif": "0036220",
      "fullName": "BRUCE WAYNE",
      "email": "b.le@example.com",
      "mobile": "0912345678",
      "identityNumber": "987654321",
      "authChannel": "SMS",
      "status": "Thành công",
      "lastUpdated": "2025-05-12T15:45:22",
      "actions": [
        "Đăng ký"
      ]
    },
    {
      "contractNumber": "0101.91.118204",
      "mcasNumber": "245970",
      "cif": "0036241",
      "fullName": "CLARK KENT",
      "email": "",
      "mobile": "0987123456",
      "identityNumber": "321456987",
      "authChannel": "SMS",
      "status": "",
      "lastUpdated": "2025-05-13T08:00:00",
      "actions": [
        "Đăng ký",
        "Đồng bộ"
      ]
    },
    {
      "contractNumber": "0101.91.118205",
      "mcasNumber": "245991",
      "cif": "0036222",
      "fullName": "Bucky barnes",
      "email": "d.dang@example.com",
      "mobile": "0901234567",
      "identityNumber": "112233445",
      "authChannel": "Email",
      "status": "Lỗi xác thực",
      "lastUpdated": "2025-05-11T17:20:45",
      "actions": [
        "Hủy CKS"
      ]
    },
    {
      "contractNumber": "0101.91.118294",
      "mcasNumber": "245953",
      "cif": "0036206",
      "fullName": "Steve Rogers",
      "email": "",
      "mobile": "0977654321",
      "identityNumber": "556677889",
      "authChannel": "SMS",
      "status": "Chờ ký",
      "lastUpdated": "2025-05-10T09:15:10",
      "actions": [
        "Đăng ký",
        "Hủy CKS"
      ]
    },
    {
      "contractNumber": "0101.91.118207",
      "mcasNumber": "245902",
      "cif": "0036239",
      "fullName": "Bruce Banner",
      "email": "f.nguyen@example.com",
      "mobile": "0939988776",
      "identityNumber": "998877665",
      "authChannel": "Email",
      "status": "Đang xử lý",
      "lastUpdated": "2025-05-09T10:10:10",
      "actions": [
        "Đồng bộ"
      ]
    },
    {
      "contractNumber": "0101.91.118208",
      "mcasNumber": "245921",
      "cif": "0036229",
      "fullName": "Barton Clint",
      "email": "g.vo@example.com",
      "mobile": "0966778899",
      "identityNumber": "445566778",
      "authChannel": "SMS",
      "status": "Đã hủy",
      "lastUpdated": "2025-05-08T14:45:00",
      "actions": [
        "Đăng ký"
      ]
    },
    {
      "contractNumber": "0101.91.118209",
      "mcasNumber": "245903",
      "cif": "0036256",
      "fullName": "Natasha Romanoff",
      "email": "h.phan@example.com",
      "mobile": "0944332211",
      "identityNumber": "667788990",
      "authChannel": "Email",
      "status": "Hoàn tất",
      "lastUpdated": "2025-05-07T16:30:00",
      "actions": [
        "Hủy CKS",
        "Đồng bộ"
      ]
    },
    {
      "contractNumber": "0101.91.118210",
      "mcasNumber": "245932",
      "cif": "0036223",
      "fullName": "Thor Odinson",
      "email": "",
      "mobile": "0933445566",
      "identityNumber": "223344556",
      "authChannel": "SMS",
      "status": "Chưa xử lý",
      "lastUpdated": "2025-05-06T11:05:55",
      "actions": [
        "Đăng ký",
        "Hủy CKS",
        "Đồng bộ"
      ]
    }
  ]
}